815
243
782
490
519
112
120
300
740
131
338
390
392
575
707
920
966
235
343
326
977
643
298
196
208
287
162
955
885
284
543
649
721
850
615
606
547
211
498
634
529
830
407
529
913
543
752
265
586
493
162
566
818
709
788
981
165
488
658
748
109
562
641
671
626
521
126
875
790
559
408
198
525
536
600
182
238
313
275
983
296
110
844
702
751
657
465
783
237
343
486
970
173
944
280
524
326
813
428
676
516
625
119
432
853
874
305
237
649
637
707
464
191
901
185
720
149
127
814
137
874
553
281
892
693
466
375
780
153
436
458
917
980
106
884
908
396
569
856
163
324
506
286
790
833
623
154
610
595
231
991
446
965
332
634
406
207
976
198
627
630
362
231
776
997
234
773
683
474
565
622
914
741
209
590
992
229
311
260
815
646
997
845
848
955
758
363
122
236
698
452
801
307
169
105
954
187
819
206
390
973
999
217
237
148
700
304
889
908
749
335
558
617
715
824
881
641
560
838
794
594
626
843
105
948
356
147
912
548
656
535
639
363
642
551
359
723
200
360
293
776
177
520
116
193
355
784
689
446
377
419
825
889
315
733
395
895
274
775
821
961
276
502
865
872
237
427
416
913
895
720
469
925
950
376
611
382
447
999
532
197
475
106
543
151
173
167
664
610
875
469
520
230
876
104
646
291
847
677
776
761
186
960
296
115
622
667
939
739
606
837
252
639
881
315
873
690
211
546
494
646
605
619
992
913
989
990
808
300
259
881
591
622
281
301
680
715
996
458
811
437
568
948
543
651
622
135
859
394
864
766
173
152
375
526
520
361
656
207
586
693
269
900
190
254
245
431
602
350
676
548
443
169
891
562
908
748
906
205
558
445
504
100
923
460
702
754
294
173
822
420
309
456
484
766
459
319
373
281
762
228
360
755
694
933
521
297
109
974
727
278
227
357
435
918
488
630
305
620
838
415
401
913
964
513
649
108
678
123
932
495
850
475
332
407
927
905
947
689
136
660
397
757
350
640
553
531
389
284
764
564
185
683
436
418
177
904
564
563
405
160
844
863
436
354
363
874
659
980
486
220
969
385
911
853
780
486
118
242
525
202
951
353
644
742
845
872
859
307
161
315
116
414
195
924
334
194
540
899
355
165
761
938
733
148
706
490
394
246
213
874
577
132
673
706
206
647
713
614
536
332
887
869
640
704
876
901
878
221
381
986
376
232
352
914
910
383
950
612
402
113
544
492
153
210
395
175
236
409
270
224
734
787
292
466
203
934
849
697
503
386
602
375
658
487
268
332
972
832
722
972
507
672
382
381
447
308
686
947
115
164
843
945
191
223
291
120
164
581
706
508
449
739
991
957
552
973
577
162
382
529
430
341
779
616
617
143
367
652
810
336
687
938
991
897
245
954
156
273
378
345
768
391
660
499
239
311
819
870
656
690
417
292
107
186
134
754
260
332
769
450
993
614
846
880
926
379
279
360
492
359
574
486
328
747
811
816
872
853
891
603
426
610
286
919
345
691
810
383
674
963
396
297
256
746
602
558
116
551
236
534
653
202
811
679
903
758
281
997
537
477
959
809
376
142
776
133
516
593
777
791
401
785
112
346
215
582
327
151
844
378
913
198
327
942
718
707
943
925
144
538
222
550
376
231
640
135
907
386
131
972
576
484
984
964
972
293
436
242
332
787
566
358
647
640
777
674
908
373
404
404
130
982
175
995
680
650
128
653
643
761
725
284
535
169
562
662
966
284
518
838
185
809
942
371
609
710
853
349
350
790
327
335
968
327
760
391
187
297
442
237
931
351
896
210
258
281
622
944
437
924
713
488
231
921
237
464
671
320
388
179
518
748
480
680
919
510
283
704
900
798
988
110
751
559
804
437
883
527
157
285
997
254
544
140
814
502
525
341
496
657
318
218
242
593
580
246
709
438
508
977
865
118
800
672
721
864
751
611
541
845
980
387
984
144
436
327
993
722
509
643
612
598
511
353
270
390
141
245
162
252
729
142
909
239
142
668
359
792
938
546
655
997
413
400
611
834
277
513
577
637
523
945
614
669
854
276
883
104
355
121
150
237
999
711
259
871
265
633
533
798
789
871
139
412
403
222
841
794
778
884
442
142
572
233
778
996
523
394
996
504
537
693
745
305
943
717
997
609
111
772
290
273
488
999
932
967
753
531
440
567
150
348
238
895
621
121
146
160
226
105
428
316
778
137
236
843
199
240
677
594
182
295
816
596
954
550
162
220
305
459
990
964
165
486
129
235
637
215
439
511
353
467
636
548
972
418
960
322
174
413
723
751
136
766
605
183
326
304
471
808
716
934
229
661
384
544
912
768
381
298
309
476
405
334
375
426
805
354
303
523
867
967
268
842
545
471
883
881
924
477
284
185
759
907
717
837
140
631
985
463
292
268
503
514
634
516
761
108
565
531
983
992
823
196
849
920
761
184
237
426
386
613
858
975
203
465
636
503
163
550
548
655
960
279
257
394
955
215
382
535
661
906
945
981
894
293
139
283
776
981
152
722
832
194
156
753
139
578
414
507
832
454
783
118
724
891
999
226
358
461
613
881
436
467
215
938
890
813
223
894
531
643
929
747
526
902
942
353
314
964
564
972
260
551
453
651
668
472
872
270
540
837
849
585
297
256
927
651
444
732
768
897
478
712
368
212
513
918
846
236
681
689
378
295
221
305
126
132
143
339
660
228
335
285
793
263
173
394
287
847
558
864
636
675
831
421
224
459
850
501
818
899
557
171
118
493
876
513
740
799
848
723
762
475
365
761
702
523
774
904
870
411
937
427
248
970
326
272
914
492
891
259
880
481
170
311
159
731
787
743
973
891
280
796
601
590
480
293
886
838
622
434
817
946
520
942
330
532
455
625
673
861
220
762
163
704
515
815
251
387
598
273
528
819
982
158
952
228
911
771
386
543
354
823
618
257
310
638
253
111
243
900
935
434
599
247
209
222
618
966
905
737
888
765
908
840
447
985
607
155
933
257
765
944
502
486
794
521
512
636
885
690
173
750
174
963
493
407
667
321
401
676
400
792
994
300
109
588
261
350
550
688
701
574
678
794
981
209
404
482
630
486
936
693
693
372
573
882
608
378
190
813
215
302
127
751
995
495
758
236
960
717
391
781
512
310
945
161
406
842
612
393
679
834
479
311
263
686
815
699
945
846
470
834
585
656
638
253
913
681
491
989
926
507
190
321
932
439
117
284
767
684
266
326
803
463
878
904
100
158
369
166
537
187
512
553
778
606
560
976
179
733
436
788
505
516
611
158
616
510
426
831
895
873
856
791
502
299
639
467
830
185
807
735
835
108
276
296
987
877
206
178
697
585
544
684
369
565
620
552
188
984
171
506
177
442
538
712
168
192
796
641
469
884
887
619
438
931
436
893
236
164
417
584
369
994
661
116
282
583
436
626
316
417
861
695
190
293
392
127
394
735
507
589
348
946
369
830
492
193
544
927
981
974
290
131
568
310
631
550
676
221
735
774
155
970
638
716
517
158
843
970
690
441
846
104
846
872
924
381
613
330
547
779
543
633
891
880
790
208
951
901
364
812
819
892
471
658
672
853
805
842
162
420
350
839
827
969
501
876
477
195
612
190
293
783
655
769
415
917
328
583
408
581
132
758
575
379
421
594
452
905
858
756
309
852
285
447
503
830
486
556
206
544
732
883
245
595
805
294
464
802
641
546
972
695
344
753
795
870
903
613
592
471
140
911
572
936
836
732
186
382
767
710
598
279
408
512
459
397
630
460
284
937
513
952
232
944
343
769
937
766
267
430
969
606
688
723
261
363
375
427
148
464
203
748
144
355
764
178
389
330
131
622
180
575
437
250
898
315
934
152
638
638
229
345
942
555
518
776
550
576
177
829
265
425
526
280
870
261
575
187
684
893
738
251
358
897
733
300
468
652
764
348
423
153
803
160
965
998
616
628
982
785
425
107
198
132
218
983
754
458
348
829
937
482
749
932
692
607
699
360
360
713
940
276
198
626
987
230
172
235
342
429
634
188
619
904
513
675
731
974
885
944
519
637
803
296
205
429
979
397
475
182
989
918
967
833
720
487
630
542
410
733
924
862
187
999
897
604
900
512
966
386
683
177
179
115
531
852
671
248
874
291
143
397
456
743
552
356
727
409
486
996
131
727
259
778
342
397
332
118
899
733
664
208
497
737
117
744
489
103
217
483
974
894
329
467
209
381
586
668
784
145
655
521
644
362
542
654
889
971
193
238
101
667
440
452
751
105
308
533
360
176
324
558
607
401
139
410
349
270
226
704
434
424
132
181
869
979
101
225
619
579
524
765
690
473
552
647
919
296
110
612
624
908
132
860
417
702
418
967
247
893
615
299
262
182
591
389
384
765
526
661
987
347
419
138
637
459
692
295
217
375
973
372
372
289
554
190
239
506
540
402
464
616
885
243
923
865
294
537
403
265
424
825
253
295
265
648
298
366
476
740
331
762
650
269
891
849
793
829
147
460
353
256
482
809
734
874
759
606
524
730
536
595
578
884
928
482
942
189
866
298
266
457
772
926
604
854
751
631
592
564
936
424
273
862
516
796
173
618
114
304
532
123
981
253
577
544
486
926
273
667
208
398
383
130
875
471
606
228
606
917
914
885
859
612
895
377
210
278
359
708
772
771
993
562
882
462
415
225
775
104
167
206
263
584
711
736
192
105
549
377
231
698
869
287
204
499
914
173
148
203
453
465
741
729
968
689
110
132
726
819
711
978
857
753
170
174
148
270
414
784
351
862
121
820
755
295
826
415
739
970
652
541
437
397
362
636
486
248
807
624
874
749
155
423
679
242
914
331
548
861
512
491
306
841
119
630
684
583
232
665
903
984
124
318
733
888
871
828
643
585
110
407
814
375
908
648
650
108
904
492
884
499
412
914
607
268
942
744
923
668
130
819
266
488
622
993
579
714
962
512
835
585
283
763
705
163
755
420
858
346
602
967
728
188
325
948
819
672
444
705
167
563
947
191
227
202
570
269
537
761
472
195
937
484
475
129
693
162
860
617
120
234
672
488
682
731
592
642
725
792
125
956
989
506
273
996
114
790
316
979
496
552
816
690
986
409
775
851
500
601
313
598
864
904
532
166
331
842
976
663
660
240
841
271
909
407
826
274
143
869
383
688
641
399
502
444
445
233
329
483
964
896
309
127
659
625
568
816
934
949
266
598
648
779
254
828
185
789
686
888
481
343
917
483
317
106
694
453
347
309
509
983
344
767
443
499
589
708
984
295
747
511
962
935
508
988
906
245
833
802
747
604
957
119
803
449
710
443
444
759
544
788
488
465
526
552
712
216
360
224
942
131
943
559
172
440
416
136
271
296
244
664
887
621
765
176
725
208
748
136
323
562
370
693
652
706
981
612
756
302
650
683
527
859
807
862
913
362
844
456
928
426
483
259
981
578
872
800
976
576
438
566
289
676
256
618
356
302
434
485
476
429
510
624
197
719
807
721
135
998
836
736
130
820
329
400
141
251
515
115
857
926
342
531
239
979
742
215
754
430
608
188
648
377
415
259
160
579
118
432
393
888
700
426
761
893
550
279
651
761
549
683
131
813
543
745
666
150
506
378
782
376
719
305
744
339
983
914
515
630
604
219
597
106
320
948
277
282
896
595
323
937
920
102
398
759
478
893
333
780
793
562
710
257
811
935
716
320
973
996
221
220
797
790
777
166
548
823
686
750
585
388
741
387
131
110
315
686
157
268
866
887
506
612
920
513
686
388
623
835
472
350
650
284
168
599
930
667
878
318
138
802
332
582
631
906
444
286
200
234
755
231
599
798
564
375
786
931
519
827
215
325
199
791
665
765
784
413
287
555
310
347
334
670
140
943
199
108
514
919
332
895
610
411
299
359
707
788
777
457
842
290
436
117
199
469
284
495
112
258
780
141
698
549
834
153
674
210
541
239
774
500
531
779
887
810
770
288
524
241
927
714
815
715
775
951
841
805
301
743
837
906
861
561
232
549
399
748
362
319
609
205
289
411
684
571
567
770
601
857
695
868
350
954
650
669
264
600
815
387
376
601
232
682
673
214
812
929
872
651
898
444
791
381
690
410
192
144
136
115
861
361
378
664
692
986
581
541
889
611
405
345
993
704
203
235
964
600
802
326
575
191
319
199
720
417
861
510
188
393
948
791
423
118
604
654
785
156
906
486
760
415
343
248
154
308
862
241
199
331
595
284
588
132
983
663
389
881
197
982
523
428
501
426
537
805
349
867
619
250
896
215
124
366
273
172
331
635
360
635
759
743
591
798
163
990
616
648
555
387
569
625
120
417
730
142
190
701
980
233
196
126
687
698
654
287
796
982
640
371
894
839
817
914
544
464
941
364
117
660
151
310
179
170
170
355
797
750
112
709
680
683
522
696
831
930
534
468
590
268
762
252
245
470
346
813
816
717
695
645
247
360
213
353
669
641
521
478
996
447
196
186
528
946
688
151
194
344
700
617
578
862
716
142
186
461
347
320
766
603
906
408
567
879
747
837
228
732
137
281
146
561
795
229
110
207
163
574
700
687
945
325
243
521
111
862
484
621
352
578
233
652
300
801
274
725
848
456
659
785
326
545
338
947
694
826
738
983
323
659
498
116
252
573
810
500
961
598
425
620
948
205
670
674
391
935
912
388
768
982
367
730
332
557
750
250
163
301
175
556
270
482
866
362
706
782
688
551
663
485
321
859
703
994
439
565
877
516
705
358
963
193
252
285
854
145
854
189
554
477
847
436
226
152
314
597
298
198
413
256
607
749
414
123
142
426
133
279
851
614
340
586
887
857
460
561
155
572
449
715
876
369
668
947
616
575
586
681
798
557
633
585
789
368
650
529
197
622
975
920
128
597
488
487
747
620
369
377
609
720
486
868
717
601
506
961
393
566
850
192
521
952
136
948
195
663
930
765
341
195
760
740
215
445
374
712
191
811
679
308
560
784
840
744
517
679
362
839
207
279
621
639
918
439
903
759
600
569
704
332
493
847
212
138
634
594
236
176
993
198
464
159
873
414
333
123
572
945
848
441
154
174
343
199
761
937
237
359
867
250
154
650
329
669
312
251
697
452
636
630
375
767
771
803
287
203
929
155
245
473
283
698
535
207
179
199
769
229
548
691
787
783
486
790
984
315
233
574
998
918
492
249
660
931
613
878
614
734
706
184
859
853
626
286
147
488
387
486
861
582
829
192
720
652
846
504
648
475
348
888
287
973
302
176
993
435
410
582
700
109
517
592
120
883
209
303
815
333
813
708
168
144
257
752
399
763
164
131
132
446
950
248
976
592
424
119
458
875
691
521
144
210
823
728
383
497
266
462
202
232
505
886
686
387
407
480
516
880
462
765
921
626
996
962
501
719
211
404
476
876
396
622
709
807
595
866
850
379
284
408
389
911
198
647
482
378
752
910
689
157
980
422
905
161
887
158
852
906
326
295
456
307
904
795
198
535
456
145
896
446
539
734
666
663
173
190
432
315
622
611
396
596
468
224
590
826
714
363
527
443
461
818
806
828
429
572
310
657
486
242
701
351
985
213
481
684
798
510
312
232
185
967
370
626
579
712
262
458
655
401
916
863
388
678
943
366
900
495
961
118
429
527
744
157
221
989
518
168
329
316
725
937
456
631
979
578
931
189
828
251
859
885
335
274
315
305
846
360
669
812
697
350
398
816
662
140
393
495
283
540
795
610
292
748
986
995
197
462
748
148
973
854
750
414
879
172
360
436
625
904
206
598
616
832
892
555
573
723
202
200
702
893
328
640
375
881
235
992
648
521
679
175
303
370
283
915
154
831
158
895
280
521
937
940
345
827
840
734
569
563
954
449
315
738
576
483
769
235
188
600
389
535
555
183
548
652
645
507
929
788
804
506
895
859
851
522
845
115
230
783
487
218
683
817
727
672
945
127
267
124
493
505
380
338
456
160
368
464
985
629
834
345
503
136
155
184
830
858
197
637
112
917
700
329
879
352
265
544
324
948
434
791
634
161
635
122
543
688
549
842
589
567
979
407
758
559
284
932
690
420
291
962
912
310
657
988
195
952
646
607
528
387
677
674
479
469
910
880
317
624
646
500
817
159
547
117
505
123
862
767
538
582
794
665
560
764
150
372
158
842
807
181
241
636
685
321
323
999
671
698
341
399
512
938
755
135
405
708
542
492
637
474
802
348
372
138
505
524
654
837
547
196
548
841
224
432
168
158
314
358
227
214
176
423
577
528
366
800
742
654
570
543
677
195
802
537
916
944
884
539
158
891
132
495
328
314
449
174
641
658
112
106
452
525
786
118
872
391
560
753
950
507
904
998
590
638
865
895
144
849
217
338
419
757
429
522
989
765
278
174
187
454
931
198
956
644
399
556
644
454
240
950
533
349
271
254
332
207
126
681
532
366
692
525
980
565
868
989
475
412
239
262
332
237
979
770
475
120
612
195
524
403
453
576
199
452
641
877
115
952
964
841
706
476
943
205
847
494
646
591
927
542
290
359
839
905
324
393
188
711
763
619
279
752
311
601
638
410
219
443
999
172
137
270
176
948
272
219
642
449
772
624
374
572
351
563
492
559
927
897
340
573
552
152
831
526
211
765
998
966
821
684
996
190
592
406
791
835
240
485
551
844
391
694
940
873
971
946
729
693
990
871
545
741
328
683
846
919
492
878
512
455
157
395
263
885
495
177
342
574
619
263
970
210
660
305
942
920
279
485
399
686
816
111
726
702
626
478
200
798
600
744
517
647
692
967
209
581
826
838
417
475
408
180
401
627
467
144
616
975
779
651
328
184
946
262
710
875
491
518
819
459
586
394
945
219
323
684
685
851
186
422
821
947
213
234
489
120
588
313
725
931
673
973
558
234
906
318
508
450
307
865
202
898
874
489
540
515
403
620
389
527
321
926
920
103
960
373
542
871
726
359
682
900
579
508
603
232
742
582
837
287
498
574
854
333
455
314
630
906
324
779
331
539
600
258
507
615
753
795
215
370
465
119
135
271
363
159
909
841
516
641
487
708
400
312
894
595
605
906
740
367
106
298
179
866
771
802
531
374
154
648
332
786
647
349
806
454
248
733
529
951
848
479
650
875
861
614
815
602
278
689
730
351
804
423
442
533
791
139
200
383
226
371
517
284
751
760
557
902
806
948
237
675
775
799
758
124
252
491
191
991
391
567
345
956
909
142
701
722
613
651
929
481
792
324
519
168
471
411
850
724
398
595
156
685
827
936
271
621
330
319
127
380
245
253
418
943
967
933
825
399
421
869
715
141
617
752
154
868
842
593
411
131
873
817
166
286
512
468
371
282
459
979
951
426
599
864
357
203
913
766
290
882
568
607
365
193
950
871
352
838
668
270
456
768
869
532
753
649
535
178
925
747
811
508
343
207
455
364
167
532
735
470
208
689
356
111
452
444
450
708
961
872
116
107
324
211
358
275
452
681
311
279
752
753
180
399
491
911
604
990
391
921
468
958
714
328
416
351
555
518
213
287
565
836
374
478
830
769
269
914
936
840
131
393
921
906
434
132
232
595
773
940
917
291
894
275
610
114
308
923
754
896
777
421
392
681
459
969
366
874
900
761
552
864
423
921
738
468
431
968
858
747
915
662
736
711
952
567
207
901
507
901
918
184
795
260
225
581
944
291
965
207
106
492
926
150
657
992
156
381
606
872
499
364
220
101
862
277
500
150
359
813
258
586
784
376
591
777
360
918
344
194
544
868
492
279
164
137
773
896
194
956
847
628
503
908
912
931
120
830
696
958
201
310
167
896
590
413
415
631
620
990
555
432
230
465
230
833
174
979
871
204
484
172
633
501
676
448
402
977
101
177
798
430
961
629
803
314
983
863
618
617
898
648
598
697
865
441
477
956
766
672
592
406
243
539
589
667
751
798
505
930
178
212
289
269
782
843
881
677
334
467
255
497
282
421
542
707
876
489
987
869
446
457
743
230
169
883
232
445
509
668
470
611
706
883
406
389
953
832
844
430
907
166
624
692
268
509
151
787
830
889
584
140
637
481
457
676
946
695
302
661
251
917
659
185
746
978
740
810
453
401
222
952
174
202
281
389
882
637
216
280
505
375
236
435
828
518
305
704
730
832
696
550
136
800
268
575
384
559
601
867
492
293
138
924
812
775
553
181
178
270
717
797
312
660
943
108
149
984
860
157
562
223
833
574
931
557
870
102
562
939
222
869
799
648
517
981
985
868
171
865
631
536
380
454
966
551
495
107
584
847
586
528
807
244
925
242
879
837
922
688
240
553
675
406
361
900
471
684
302
504
869
554
865
605
260
580
626
356
381
722
128
217
983
711
234
726
360
600
326
786
580
237
680
688
275
423
593
802
491
501
983
377
894
685
227
312
190
162
531
710
743
933
730
363
819
345
206
465
875
357
929
829
266
902
542
634
708
767
971
931
267
659
885
305
920
879
151
399
625
758
467
685
357
706
447
771
798
771
343
680
922
252
547
455
635
242
219
336
969
350
578
812
415
966
237
640
949
330
367
141
466
113
744
257
234
677
738
527
408
407
268
781
956
320
596
673
690
689
460
191
227
952
709
859
662
800
974
746
375
139
530
924
836
244
374
352
870
440
983
594
263
715
314
638
640
684
135
839
128
323
360
846
512
978
540
202
613
576
847
135
944
217
378
456
198
329
213
346
393
278
206
446
546
766
189
606
760
609
430
430
723
720
820
744
881
699
696
479
154
996
379
533
753
301
515
629
284
273
760
470
741
424
898
992
958
179
836
814
878
862
147
692
246
566
685
452
207
393
859
299
846
506
864
236
484
152
613
922
632
707
572
176
777
395
852
813
424
598
349
412
216
511
417
444
961
127
828
850
765
141
911
804
518
826
516
887
712
387
852
697
967
504
888
958
546
711
178
677
358
478
734
946
610
139
891
402
678
716
748
696
925
950
850
231
240
529
470
865
505
996
381
539
861
575
901
757
399
415
688
256
388
658
820
178
985
981
423
493
309
126
987
175
670
260
651
440
516
839
996
227
223
680
425
712
703
136
271
122
846
878
470
756
186
745
763
235
389
844
635
731
278
815
705
688
176
639
547
407
968
290
373
521
567
308
436
246
783
959
579
668
334
134
630
388
250
939
450
887
935
658
502
398
918
436
902
614
504
475
843
192
801
556
815
204
571
811
892
731
618
786
486
241
862
228
784
571
960
379
112
992
358
835
922
583
321
856
687
469
901
426
575
437
595
779
668
109
322
695
545
943
534
591
621
428
878
314
438
901
868
542
651
669
316
951
943
610
865
966
526
954
291
810
961
921
644
956
808
522
685
530
582
737
380
818
875
933
828
983
173
401
622
438
439
237
902
223
912
362
558
348
296
373
581
441
409
144
986
900
683
939
724
602
506
488
403
930
219
435
879
873
713
926
612
926
917
782
202
112
145
900
575
422
262
659
243
590
532
209
645
406
466
994
143
734
960
652
124
317
879
861
782
799
777
251
653
682
553
100
807
982
657
400
140
837
446
492
607
970
601
456
162
543
594
165
560
598
692
540
332
661
226
244
527
705
870
968
428
433
330
781
600
328
544
276
861
738
905
778
965
944
766
170
885
491
419
575
830
222
755
843
745
769
580
711
318
326
576
501
588
452
688
257
313
417
646
469
267
238
269
347
803
622
544
223
526
569
878
796
665
939
913
333
138
667
379
691
730
481
807
848
539
317
348
999
226
302
563
648
729
727
222
616
922
599
459
900
344
106
282
351
643
816
197
609
316
883
270
982
588
696
905
201
302
997
327
499
371
570
691
547
236
575
140
606
948
535
640
562
326
991
814
904
201
668
227
125
574
198
377
888
169
555
512
537
616
162
280
133
609
865
768
374
667
470
451
847
471
222
856
439
106
491
482
470
829
143
299
340
640
733
514
573
922
535
925
748
998
383
110
243
687
194
714
201
678
673
379
973
235
330
109
947
406
203
496
514
708
825
519
788
589
240
853
910
894
140
790
143
853
737
553
375
908
595
889
765
510
846
280
332
319
737
178
436
840
173
564
598
504
679
993
628
766
378
912
552
921
683
730
769
361
277
169
376
508
667
765
313
427
799
942
583
387
555
510
100
652
278
732
373
131
190
679
651
836
520
408
332
958
301
982
513
567
647
182
426
788
315
927
793
276
437
426
272
922
235
267
585
575
232
734
825
786
872
208
736
335
270
778
223
212
449
998
560
653
465
794
857
395
706
619
312
501
768
965
785
182
749
533
170
226
657
813
143
950
721
714
308
154
944
545
720
965
956
625
501
145
904
249
208
165
381
402
230
994
489
979
153
882
859
456
809
863
688
918
604
435
104
263
434
255
945
653
542
108
513
751
891
140
367
243
105
978
561
560
181
286
605
383
831
890
236
710
379
590
687
952
196
110
680
379
280
674
798
776
686
308
680
360
941
284
697
643
138
653
441
191
853
403
993
639
243
782
652
475
414
124
722
553
920
671
704
114
533
326
480
151
651
334
264
233
169
249
743
957
867
960
943
134
501
734
433
554
574
379
766
909
553
373
655
166
513
617
457
138
366
322
778
623
623
511
461
289
903
413
611
264
331
330
675
320
773
905
949
461
377
888
357
240
774
834
351
129
879
570
924
733
168
369
675
235
876
498
793
412
933
749
222
378
885
820
250
251
215
524
834
678
809
583
521
223
120
651
651
233
973
186
610
609
973
190
842
241
196
464
177
225
883
950
708
172
353
680
543
488
275
627
860
865
460
290
352
216
907
275
680
567
301
349
351
905
996
661
199
807
248
239
707
890
574
357
558
121
510
647
961
428
762
375
529
385
339
578
175
842
975
915
129
618
184
130
926
577
289
963
965
481
411
853
552
276
563
738
814
227
426
768
543
275
679
149
810
749
762
443
605
315
641
603
388
262
665
521
555
887
675
427
476
935
349
440
469
516
274
237
474
188
351
364
942
997
881
299
760
946
541
749
939
347
470
987
247
625
950
487
416
794
398
400
652
186
593
606
920
933
516
133
829
852
609
331
324
686
533
746
173
209
154
992
920
900
780
509
981
619
101
919
717
353
421
284
376
370
542
753
722
771
284
315
186
675
890
532
824
441
460
444
194
968
551
456
690
442
613
875
383
555
854
500
699
938
688
575
108
529
705
822
888
867
620
202
542
340
718
947
452
819
531
420
265
473
391
890
240
787
959
221
951
502
245
184
419
525
434
477
397
522
999
894
438
168
835
581
406
632
320
209
176
462
781
195
230
770
246
602
533
326
232
466
408
746
103
335
131
772
860
180
158
662
278
475
593
216
568
489
813
467
418
288
140
790
171
851
512
718
451
882
489
264
456
974
354
527
480
895
960
236
983
925
932
817
734
519
289
189
974
107
294
971
724
419
978
655
436
195
833
519
176
890
461
338
933
372
999
868
639
496
681
608
141
940
832
417
667
491
824
566
292
444
501
236
352
503
224
670
220
814
390
756
684
419
645
843
226
484
548
501
148
884
596
549
522
867
123
690
990
201
475
312
143
131
105
715
541
787
185
846
571
965
772
599
364
692
419
400
402
213
924
243
974
731
367
636
640
431
166
939
782
686
186
567
933
520
962
113
127
828
534
425
826
938
455
398
648
467
629
758
720
145
142
393
679
868
924
963
617
400
359
935
461
271
279
977
456
982
577
196
185
553
137
161
239
286
192
379
610
180
271
990
409
942
686
886
152
964
289
172
895
130
111
275
140
232
633
116
592
983
214
422
614
789
357
219
406
927
538
826
368
106
542
787
430
834
776
610
890
484
614
520
295
670
828
168
295
970
885
408
631
667
781
105
442
920
204
471
820
508
690
574
411
411
309
694
893
339
738
873
116
586
288
222
378
193
397
744
848
611
703
422
159
506
165
428
679
769
776
649
607
211
387
477
912
889
344
346
830
254
851
239
679
718
707
376
853
189
657
203
734
801
865
227
548
882
188
496
213
395
561
725
735
679
447
303
374
562
252
607
450
413
997
198
665
235
898
690
401
391
122
855
812
196
546
822
454
403
175
713
628
631
555
974
530
744
150
899
175
488
494
594
150
396
539
940
943
583
360
992
317
129
535
281
869
373
538
449
431
872
341
849
266
912
218
818
293
220
656
248
248
839
630
476
112
170
785
137
303
799
539
757
415
816
171
715
816
835
967
345
914
818
357
151
738
433
975
415
970
438
893
827
272
221
662
513
270
456
215
953
881
804
586
706
695
562
861
433
254
638
727
351
524
375
806
954
661
189
366
273
677
353
513
507
223
589
156
976
137
672
520
689
658
863
332
893
950
136
197
749
516
727
847
175
127
227
859
259
150
809
718
936
778
239
483
505
452
698
462
738
834
169
107
261
833
782
420
298
580
283
324
798
487
167
180
457
649
169
385
452
638
367
408
619
299
349
852
206
473
710
934
527
874
293
567
832
494
324
957
929
823
687
622
365
890
170
521
919
480
754
801
200
145
434
368
655
479
990
278
449
701
721
303
608
245
687
217
938
994
821
308
335
602
169
146
301
148
723
308
958
184
274
407
494
142
909
143
761
757
913
761
258
571
352
381
489
658
866
307
422
223
242
951
387
278
796
506
152
803
641
521
541
610
649
724
768
596
665
880
930
126
998
649
714
338
719
222
558
783
182
580
219
517
846
300
620
203
504
770
165
101
412
246
739
383
214
283
890
796
865
901
587
144
581
973
445
708
734
162
507
631
670
718
914
188
963
618
846
112
962
558
565
334
859
653
847
722
445
147
930
257
235
372
398
211
821
800
752
720
189
964
681
346
566
159
696
568
900
627
632
610
933
225
147
785
769
518
176
993
421
179
947
971
601
381
890
615
474
516
188
981
231
468
282
113
766
827
638
689
153
357
913
501
519
104
513
282
186
655
273
238
171
289
298
806
250
265
275
830
636
346
397
326
988
437
869
276
168
314
765
354
846
639
308
302
515
156
893
326
393
226
723
950
617
617
262
821
499
469
129
373
424
779
756
304
971
702
108
141
152
596
108
368
451
906
651
921
557
885
393
442
936
649
176
339
143
948
603
792
430
956
647
100
170
911
393
169
209
934
900
890
126
401
908
898
283
135
307
999
573
345
705
107
988
757
326
731
327
136
655
232
106
366
580
946
372
707
385
261
741
471
737
605
231
343
899
313
262
189
650
203
128
575
206
134
488
786
629
895
873
828
804
134
487
781
181
272
294
272
261
174
312
234
546
332
336
511
167
850
891
423
290
864
317
353
762
977
317
925
349
631
494
905
791
832
515
852
697
327
438
662
374
478
986
463
779
317
252
570
402
968
508
546
922
970
858
221
186
361
574
483
807
318
666
660
239
622
368
278
888
906
234
279
119
377
846
898
114
889
638
377
862
115
507
781
133
574
699
477
633
678
336
775
305
241
181
735
775
242
635
615
833
218
780
708
862
666
413
190
363
996
286
366
971
127
470
189
171
265
343
440
727
450
975
716
830
618
355
674
471
433
740
693
671
248
790
401
444
405
221
562
617
474
825
991
734
834
777
885
533
433
686
542
312
783
438
548
292
618
212
418
386
961
208
432
544
588
952
222
849
341
539
325
356
931
828
372
408
939
426
433
924
403
820
767
298
881
357
909
644
280
516
455
679
715
611
870
265
848
585
436
143
521
878
160
716
153
329
886
730
857
804
396
950
155
809
332
181
773
409
826
138
816
100
578
916
872
744
638
274
764
628
539
866
205
690
834
482
732
717
323
952
425
796
876
516
465
215
595
829
179
287
706
236
273
826
199
157
872
353
154
955
405
646
947
581
368
966
227
646
404
389
910
680
939
914
545
220
108
834
433
314
998
906
377
796
779
845
552
673
764
825
251
340
284
564
145
594
772
290
432
723
681
437
365
726
907
403
838
247
333
960
499
860
640
768
664
457
724
723
144
506
787
235
383
344
680
535
137
497
343
262
823
888
563
659
105
548
352
225
316
404
485
595
762
179
547
976
437
369
216
978
743
301
225
463
567
991
890
644
529
686
385
299
816
899
423
888
363
615
513
773
952
725
947
807
911
476
744
707
764
773
465
194
579
564
596
565
343
499
638
554
132
990
238
120
847
681
749
604
762
910
205
203
568
908
963
617
585
452
187
184
313
438
734
112
395
717
152
124
201
475
790
254
975
699
764
319
356
693
832
307
709
703
725
936
144
591
661
355
348
904
270
676
250
188
504
106
124
960
736
161
810
474
579
828
936
103
989
437
269
495
900
722
973
217
210
884
142
245
929
326
260
470
493
499
596
210
195
483
906
159
551
562
353
949
904
348
556
654
176
546
111
749
115
128
383
555
972
877
994
438
905
892
887
469
327
712
640
456
151
738
276
334
761
798
998
499
697
907
715
427
751
522
766
586
683
659
298
852
617
362
885
246
880
728
572
235
842
196
132
104
283
827
266
681
328
966
328
940
639
316
416
470
879
965
480
991
582
618
141
250
809
469
758
388
548
551
796
580
504
248
322
783
507
285
650
403
937
459
967
868
215
396
406
459
246
442
839
354
946
296
970
686
457
330
304
858
800
948
290
387
288
880
403
383
660
433
189
710
240
156
665
257
114
190
336
851
749
431
780
443
659
627
313
899
263
368
547
315
389
625
343
610
407
860
495
315
848
666
401
620
496
745
521
926
852
675
271
582
685
119
839
143
656
906
103
131
739
932
810
740
754
899
779
708
802
998
666
969
692
427
982
987
286
967
999
566
387
852
624
341
575
346
897
206
669
189
701
808
217
448
631
467
797
963
823
405
745
165
118
963
478
706
620
984
104
149
939
509
420
725
973
349
348
983
379
865
847
141
840
905
596
475
222
755
652
483
314
496
596
165
649
802
371
142
955
442
515
747
209
835
401
172
420
258
466
796
917
313
302
509
512
271
676
868
652
937
888
748
867
100
408
884
935
910
747
538
592
459
805
157
929
639
813
679
304
358
929
166
790
771
765
367
888
348
180
203
255
138
223
651
744
534
791
291
853
132
849
310
570
589
263
187
566
844
642
232
619
397
761
816
605
382
535
393
693
758
959
591
414
823
194
660
966
721
237
184
773
270
328
658
174
760
408
417
475
977
555
731
876
423
164
939
523
803
581
259
119
996
790
633
287
985
829
948
519
805
721
634
209
953
929
570
277
345
639
554
683
285
306
307
863
425
572
543
271
423
474
681
715
370
632
453
339
536
279
278
471
301
681
788
677
439
303
497
341
672
431
573
642
748
805
560
376
765
822
807
948
738
938
623
395
476
911
990
717
577
708
117
724
914
921
411
304
585
723
905
797
540
616
448
206
779
190
661
170
668
861
303
632
765
394
119
982
868
638
911
222
855
493
891
328
650
353
762
268
756
537
722
963
259
596
992
596
144
793
193
493
712
422
610
305
350
274
932
702
726
620
530
291
100
812
693
403
751
147
267
293
252
896
561
195
806
923
849
363
151
590
821
504
478
751
809
507
344
954
529
764
820
639
270
486
716
528
294
815
762
186
283
127
408
803
332
198
433
723
213
786
779
401
247
784
502
983
464
661
808
891
726
102
822
562
996
305
729
455
864
539
615
889
480
560
805
983
190
199
457
699
292
540
899
757
967
466
117
855
691
858
133
182
564
178
559
451
148
596
780
163
279
489
551
150
699
589
414
916
515
147
565
776
203
441
509
749
120
743
149
521
707
671
486
973
661
628
523
111
340
276
182
414
515
159
417
461
967
223
744
162
670
132
858
407
265
388
432
857
810
160
897
797
153
937
629
294
416
487
505
243
814
743
978
282
732
629
728
718
991
474
476
759
507
202
606
135
559
693
209
475
640
881
447
458
313
363
861
573
878
643
387
405
801
453
940
718
430
800
674
726
156
998
140
288
879
269
266
523
662
989
638
582
303
437
817
796
933
749
621
284
509
509
481
465
890
368
246
954
954
368
377
412
102
657
127
223
774
295
278
341
460
852
310
977
438
421
268
726
430
682
675
597
655
598
355
875
986
724
970
478
543
782
995
596
625
135
648
843
108
945
690
160
914
721
934
843
281
296
917
883
310
251
184
128
602
121
341
488
197
789
988
527
270
114
116
422
277
699
969
750
397
432
787
354
704
153
962
147
560
156
590
485
373
227
151
977
840
620
369
593
195
376
380
460
788
527
245
775
237
425
128
761
169
626
182
537
243
279
974
927
923
365
405
405
970
368
464
234
358
955
816
853
630
950
344
263
287
954
605
890
785
477
692
872
260
654
586
870
276
468
446
168
615
905
929
520
722
729
637
789
456
743
683
998
593
457
839
554
373
449
796
218
900
146
554
168
554
950
969
829
933
367
520
300
542
243
908
342
930
627
859
758
739
226
406
619
354
398
902
823
335
582
571
519
601
988
721
439
979
187
935
352
583
653
665
893
689
547
817
381
893
648
240
198
293
615
832
522
779
452
588
445
386
264
209
930
714
956
753
299
755
194
988
733
371
271
326
994
979
819
527
703
107
599
405
633
834
380
487
344
962
839
292
323
247
109
880
909
785
461
138
937
623
473
993
963
692
360
858
212
710
464
781
646
893
377
191
666
763
539
701
727
739
130
290
148
869
346
790
543
809
921
819
259
647
329
423
995
991
381
486
615
544
426
791
864
738
431
273
507
390
833
284
120
536
470
264
634
299
224
689
622
637
169
260
845
729
935
661
834
603
929
681
544
119
640
402
517
789
168
598
730
471
607
834
525
289
983
450
910
832
936
216
807
450
318
735
516
136
131
792
292
466
680
373
181
288
276
725
882
334
724
372
779
644
187
156
524
397
358
890
260
800
668
487
103
476
809
438
630
506
827
303
783
129
785
445
321
101
132
635
774
784
475
226
552
347
799
277
838
380
514
511
814
545
193
382
878
497
109
727
867
895
633
822
334
317
466
954
480
367
206
442
482
659
184
116
789
225
743
898
516
488
632
961
992
431
838
800
174
236
446
241
432
818
602
552
514
842
460
915
606
270
679
722
193
872
287
572
983
790
603
438
152
996
313
950
502
911
651
780
183
881
566
745
807
631
887
926
731
336
476
746
539
869
754
173
597
944
941
869
258
858
337
540
841
420
755
607
640
602
898
858
757
928
427
159
741
482
769
564
257
250
109
774
114
451
376
600
872
889
794
550
809
885
913
398
399
519
404
867
786
665
741
279
670
946
792
889
408
310
601
290
725
132
292
903
331
950
765
943
986
719
358
287
232
405
166
456
436
574
867
652
239
244
619
618
115
860
512
753
150
899
904
325
931
499
928
933
442
753
866
556
871
349
964
857
138
430
935
797
688
377
306
533
999
202
552
649
941
669
507
363
545
229
660
907
893
416
397
130
890
757
387
806
703
235
683
509
659
563
642
380
390
874
393
264
587
296
136
423
888
945
140
582
658
849
559
312
560
666
967
980
822
608
393
291
944
345
734
345
822
632
100
168
716
945
507
505
502
245
821
143
453
419
945
196
399
376
162
508
859
839
259
615
192
529
288
253
752
857
263
479
784
165
268
206
921
310
388
496
383
398
316
225
663
356
823
160
476
384
146
419
778
840
968
684
709
211
361
223
997
430
255
622
283
210
120
522
690
486
803
113
865
591
300
497
801
969
219
203
497
900
357
896
198
908
825
480
512
925
619
297
483
392
459
194
387
378
715
567
502
607
441
687
438
195
926
482
613
993
271
233
529
106
290
594
609
983
914
397
610
255
126
684
499
126
403
908
222
789
941
513
565
666
292
870
329
700
281
528
563
703
243
713
915
313
278
651
889
981
598
775
178
100
582
510
498
990
472
445
289
555
963
317
998
828
662
425
179
777
302
666
529
720
393
537
973
731
353
884
377
551
289
896
217
260
600
750
528
114
300
404
438
650
476
859
159
438
991
590
259
226
519
303
742
203
478
344
912
709
795
186
390
502
927
335
431
681
186
665
411
315
286
166
967
153
713
450
364
755
510
834
646
356
882
120
109
841
123
485
493
206
649
426
255
290
844
539
762
346
763
601
677
578
232
222
294
467
741
198
458
576
155
357
931
707
871
390
339
605
830
228
362
866
277
620
711
979
644
512
241
764
434
503
948
403
331
588
123
496
890
180
471
803
252
948
822
309
220
156
221
103
707
473
682
732
837
576
189
703
190
271
660
914
713
888
777
207
343
976
341
196
706
105
142
877
167
575
803
973
870
842
667
331
193
775
732
456
205
664
817
478
149
287
817
959
638
173
878
150
148
872
786
388
390
572
814
406
556
242
719
791
301
455
718
917
753
689
709
539
556
135
984
333
433
139
370
969
994
692
946
653
714
269
810
629
372
909
689
822
206
911
391
208
640
152
639
132
229
764
292
143
511
265
342
273
208
538
540
417
958
555
436
139
998
625
653
716
812
698
934
247
241
128
244
333
852
695
651
443
170
107
470
391
164
539
855
662
486
215
494
160
453
822
103
431
582
762
214
288
379
536
609
729
186
495
693
134
820
948
668
935
641
160
625
962
531
743
630
855
696
573
751
205
347
716
643
294
501
867
202
415
801
753
416
987
677
795
622
725
721
588
818
792
370
299
970
881
452
251
878
120
665
774
808
935
628
333
835
816
154
206
175
539
536
688
170
412
370
666
460
422
915
546
788
731
431
104
651
444
641
378
376
560
758
457
900
774
272
191
257
517
482
283
725
555
421
412
895
327
999
402
241
488
629
565
723
960
835
774
624
463
515
110
112
840
123
858
169
496
742
403
156
820
799
240
679
261
314
879
713
938
818
503
979
277
196
440
797
959
608
398
741
160
107
880
436
838
167
286
499
346
446
851
937
761
274
813
395
813
569
713
934
620
959
617
467
855
432
136
971
131
630
537
355
989
804
217
896
587
539
751
292
191
113
557
355
357
370
564
714
713
472
414
915
104
219
238
210
167
421
148
951
293
142
464
828
157
698
802
968
481
667
734
602
554
674
537
571
572
530
772
227
215
624
147
651
229
873
129
863
103
963
793
747
432
623
220
879
470
789
260
392
654
812
921
151
401
702
850
253
831
215
958
512
870
632
514
882
530
811
115
531
228
764
603
682
125
121
780
316
271
502
722
133
454
790
162
585
407
243
587
989
977
500
676
947
923
365
205
968
983
885
394
721
374
765
236
961
506
760
486
999
879
267
404
161
297
628
349
699
983
350
572
647
477
612
451
893
740
234
754
906
695
962
977
404
485
611
503
260
229
707
983
743
255
986
957
492
451
497
358
506
178
328
703
473
711
549
125
751
903
493
876
951
956
691
963
880
172
870
238
768
187
475
520
614
116
198
475
677
187
538
520
796
462
174
597
851
228
809
240
935
104
214
395
336
989
477
964
423
753
758
816
284
360
905
318
711
825
579
366
437
390
327
207
510
858
796
684
740
665
356
382
639
392
474
894
409
281
619
637
465
791
890
116
969
925
997
545
870
134
748
785
865
987
743
303
241
235
732
538
320
281
491
862
108
495
790
955
430
424
772
241
217
251
221
800
240
925
121
181
806
240
495
335
607
971
236
766
224
553
510
169
490
375
101
635
401
423
887
150
569
337
463
969
327
860
656
388
152
173
559
204
511
687
360
977
980
265
912
623
433
760
443
759
348
959
896
438
327
684
991
116
849
641
830
230
598
153
110
348
809
915
515
122
775
520
676
928
657
591
453
396
161
772
288
999
823
826
972
413
332
878
255
277
575
633
963
668
555
423
360
715
187
459
105
692
247
469
829
325
734
877
805
674
456
314
315
382
156
792
285
631
603
323
888
244
321
479
246
661
389
277
657
117
674
716
126
815
551
819
101
760
799
846
438
830
959
922
312
370
364
160
166
115
742
434
626
781
416
310
447
898
864
607
928
837
653
353
804
427
484
305
610
386
782
346
802
887
329
144
583
901
675
363
579
764
282
383
185
759
555
113
913
656
628
744
527
502
130
798
778
361
618
733
586
478
486
955
168
484
809
951
682
555
417
215
336
875
309
588
102
926
725
686
676
325
286
941
933
567
747
542
695
393
640
478
585
345
282
970
533
710
106
123
816
959
394
268
363
367
496
805
354
995
351
304
730
500
271
851
911
175
313
831
263
644
934
418
608
121
570
650
345
129
565
106
543
558
256
293
469
723
899
480
631
668
492
692
667
223
297
317
366
508
747
937
598
607
301
654
921
883
550
771
214
591
179
385
691
822
393
594
642
285
372
996
721
729
576
313
694
653
584
527
389
895
773
872
529
172
646
994
403
140
621
599
254
102
310
616
800
831
642
994
700
437
674
427
901
962
845
248
945
763
667
222
600
682
825
794
583
684
728
690
221
568
853
963
547
323
414
526
436
315
624
942
436
241
642
949
682
549
233
502
163
973
263
826
674
870
212
521
438
606
724
735
771
260
896
489
321
186
224
207
685
314
658
558
800
653
458
486
265
597
882
110
181
662
841
232
246
354
428
562
341
277
621
374
575
739
338
698
206
424
337
696
722
752
852
898
568
614
689
807
714
639
485
708
778
307
393
318
259
654
579
221
521
757
881
563
500
732
183
666
921
643
828
962
275
906
742
701
623
221
758
900
506
959
690
945
338
467
299
142
517
897
811
656
665
435
144
158
689
319
427
190
587
763
401
658
173
358
845
809
557
567
389
235
707
564
986
278
861
337
842
647
156
224
527
694
713
637
